\relax 
\providecommand\hyper@newdestlabel[2]{}
\providecommand\HyperFirstAtBeginDocument{\AtBeginDocument}
\HyperFirstAtBeginDocument{\ifx\hyper@anchor\@undefined
\global\let\oldcontentsline\contentsline
\gdef\contentsline#1#2#3#4{\oldcontentsline{#1}{#2}{#3}}
\global\let\oldnewlabel\newlabel
\gdef\newlabel#1#2{\newlabelxx{#1}#2}
\gdef\newlabelxx#1#2#3#4#5#6{\oldnewlabel{#1}{{#2}{#3}}}
\AtEndDocument{\ifx\hyper@anchor\@undefined
\let\contentsline\oldcontentsline
\let\newlabel\oldnewlabel
\fi}
\fi}
\global\let\hyper@last\relax 
\gdef\HyperFirstAtBeginDocument#1{#1}
\providecommand\HyField@AuxAddToFields[1]{}
\providecommand\HyField@AuxAddToCoFields[2]{}
\@writefile{toc}{\contentsline {section}{\numberline {1}Flow through pipes}{1}{section.1}\protected@file@percent }
\@writefile{toc}{\contentsline {subsection}{\numberline {1.1}Laminar and turbulent flows}{2}{subsection.1.1}\protected@file@percent }
\@writefile{toc}{\contentsline {subsection}{\numberline {1.2}Reynolds Number}{2}{subsection.1.2}\protected@file@percent }
\@writefile{toc}{\contentsline {subsection}{\numberline {1.3}Entrance}{2}{subsection.1.3}\protected@file@percent }
\@writefile{lof}{\contentsline {figure}{\numberline {1}{\ignorespaces Development of a flow in a pipe}}{2}{figure.1}\protected@file@percent }
\newlabel{entrance-pipe}{{1}{2}{Development of a flow in a pipe}{figure.1}{}}
\@writefile{toc}{\contentsline {subsection}{\numberline {1.4}Entry lengths}{3}{subsection.1.4}\protected@file@percent }
\@writefile{toc}{\contentsline {subsection}{\numberline {1.5}Laminar flow in pipes}{3}{subsection.1.5}\protected@file@percent }
\@writefile{lof}{\contentsline {figure}{\numberline {2}{\ignorespaces Force balance on an infinitesimal element of fluid}}{3}{figure.2}\protected@file@percent }
\newlabel{stress_pipe_flow}{{2}{3}{Force balance on an infinitesimal element of fluid}{figure.2}{}}
\newlabel{vavg}{{2}{4}{Laminar flow in pipes}{equation.1.2}{}}
\@writefile{toc}{\contentsline {subsection}{\numberline {1.6}Pressure drop}{5}{subsection.1.6}\protected@file@percent }
\newlabel{pressure_loss}{{5}{5}{Pressure drop}{equation.1.5}{}}
\newlabel{gen_pressure_loss}{{6}{5}{Pressure drop}{equation.1.6}{}}
\@writefile{toc}{\contentsline {subsection}{\numberline {1.7}Inclined and non-circular pipes}{6}{subsection.1.7}\protected@file@percent }
\@writefile{toc}{\contentsline {subsection}{\numberline {1.8}Non-circular Pipes}{6}{subsection.1.8}\protected@file@percent }
\@writefile{lot}{\contentsline {table}{\numberline {1}{\ignorespaces Friction factor for some sections}}{6}{table.1}\protected@file@percent }
\@writefile{toc}{\contentsline {subsection}{\numberline {1.9}Turbulent flow}{6}{subsection.1.9}\protected@file@percent }
\@writefile{lof}{\contentsline {figure}{\numberline {3}{\ignorespaces Shear stress in turbulent flow}}{7}{figure.3}\protected@file@percent }
\newlabel{pois_turb_stress}{{3}{7}{Shear stress in turbulent flow}{figure.3}{}}
\@writefile{lof}{\contentsline {figure}{\numberline {4}{\ignorespaces Comparison of near wall region in laminar and turbulent flow}}{8}{figure.4}\protected@file@percent }
\newlabel{blcompare}{{4}{8}{Comparison of near wall region in laminar and turbulent flow}{figure.4}{}}
\@writefile{toc}{\contentsline {subsection}{\numberline {1.10}Turbulent velocity profile}{8}{subsection.1.10}\protected@file@percent }
\@writefile{lof}{\contentsline {figure}{\numberline {5}{\ignorespaces wall law and log law velocity comparison based on experiments}}{9}{figure.5}\protected@file@percent }
\newlabel{loglaw}{{5}{9}{wall law and log law velocity comparison based on experiments}{figure.5}{}}
