PWD /media/prapanch/New_Volume/Documents/writing/teaching/APL774
INPUT /etc/texmf/web2c/texmf.cnf
INPUT /usr/share/texmf/web2c/texmf.cnf
INPUT /usr/share/texlive/texmf-dist/web2c/texmf.cnf
INPUT /var/lib/texmf/web2c/pdftex/pdflatex.fmt
INPUT lecture.tex
OUTPUT lecture.log
INPUT /usr/share/texlive/texmf-dist/tex/latex/base/article.cls
INPUT /usr/share/texlive/texmf-dist/tex/latex/base/article.cls
INPUT /usr/share/texlive/texmf-dist/tex/latex/base/size10.clo
INPUT /usr/share/texlive/texmf-dist/tex/latex/base/size10.clo
INPUT /usr/share/texmf/tex/latex/lm/lmodern.sty
INPUT /usr/share/texmf/tex/latex/lm/lmodern.sty
INPUT /usr/share/texlive/texmf-dist/tex/latex/amsfonts/amssymb.sty
INPUT /usr/share/texlive/texmf-dist/tex/latex/amsfonts/amssymb.sty
INPUT /usr/share/texlive/texmf-dist/tex/latex/amsfonts/amsfonts.sty
INPUT /usr/share/texlive/texmf-dist/tex/latex/amsfonts/amsfonts.sty
INPUT /usr/share/texlive/texmf-dist/tex/latex/amsmath/amsmath.sty
INPUT /usr/share/texlive/texmf-dist/tex/latex/amsmath/amsmath.sty
INPUT /usr/share/texlive/texmf-dist/tex/latex/amsmath/amstext.sty
INPUT /usr/share/texlive/texmf-dist/tex/latex/amsmath/amstext.sty
INPUT /usr/share/texlive/texmf-dist/tex/latex/amsmath/amsgen.sty
INPUT /usr/share/texlive/texmf-dist/tex/latex/amsmath/amsgen.sty
INPUT /usr/share/texlive/texmf-dist/tex/latex/amsmath/amsbsy.sty
INPUT /usr/share/texlive/texmf-dist/tex/latex/amsmath/amsbsy.sty
INPUT /usr/share/texlive/texmf-dist/tex/latex/amsmath/amsopn.sty
INPUT /usr/share/texlive/texmf-dist/tex/latex/amsmath/amsopn.sty
INPUT /usr/share/texlive/texmf-dist/tex/latex/graphics/graphics.sty
INPUT /usr/share/texlive/texmf-dist/tex/latex/graphics/graphics.sty
INPUT /usr/share/texlive/texmf-dist/tex/latex/graphics/trig.sty
INPUT /usr/share/texlive/texmf-dist/tex/latex/graphics/trig.sty
INPUT /usr/share/texlive/texmf-dist/tex/latex/graphics-cfg/graphics.cfg
INPUT /usr/share/texlive/texmf-dist/tex/latex/graphics-cfg/graphics.cfg
INPUT /usr/share/texlive/texmf-dist/tex/latex/graphics-def/pdftex.def
INPUT /usr/share/texlive/texmf-dist/tex/latex/graphics-def/pdftex.def
INPUT /usr/share/texlive/texmf-dist/tex/latex/graphics/graphicx.sty
INPUT /usr/share/texlive/texmf-dist/tex/latex/graphics/graphicx.sty
INPUT /usr/share/texlive/texmf-dist/tex/latex/graphics/keyval.sty
INPUT /usr/share/texlive/texmf-dist/tex/latex/graphics/keyval.sty
INPUT /usr/share/texlive/texmf-dist/tex/generic/iftex/ifxetex.sty
INPUT /usr/share/texlive/texmf-dist/tex/generic/iftex/ifxetex.sty
INPUT /usr/share/texlive/texmf-dist/tex/generic/iftex/iftex.sty
INPUT /usr/share/texlive/texmf-dist/tex/generic/iftex/iftex.sty
INPUT /usr/share/texlive/texmf-dist/tex/generic/iftex/ifluatex.sty
INPUT /usr/share/texlive/texmf-dist/tex/generic/iftex/ifluatex.sty
INPUT /usr/share/texlive/texmf-dist/tex/latex/base/fixltx2e.sty
INPUT /usr/share/texlive/texmf-dist/tex/latex/base/fixltx2e.sty
INPUT /usr/share/texlive/texmf-dist/tex/latex/base/fontenc.sty
INPUT /usr/share/texlive/texmf-dist/tex/latex/base/fontenc.sty
INPUT /usr/share/texmf/tex/latex/lm/t1lmr.fd
INPUT /usr/share/texmf/tex/latex/lm/t1lmr.fd
INPUT /usr/share/texlive/texmf-dist/fonts/map/fontname/texfonts.map
INPUT /usr/share/texmf/fonts/tfm/public/lm/ec-lmr10.tfm
INPUT /usr/share/texlive/texmf-dist/tex/latex/base/inputenc.sty
INPUT /usr/share/texlive/texmf-dist/tex/latex/base/inputenc.sty
INPUT /usr/share/texlive/texmf-dist/tex/latex/upquote/upquote.sty
INPUT /usr/share/texlive/texmf-dist/tex/latex/upquote/upquote.sty
INPUT /usr/share/texlive/texmf-dist/tex/latex/upquote/upquote.sty
INPUT /usr/share/texlive/texmf-dist/tex/latex/base/textcomp.sty
INPUT /usr/share/texlive/texmf-dist/tex/latex/base/textcomp.sty
INPUT /usr/share/texlive/texmf-dist/tex/latex/microtype/microtype.sty
INPUT /usr/share/texlive/texmf-dist/tex/latex/microtype/microtype.sty
INPUT /usr/share/texlive/texmf-dist/tex/latex/microtype/microtype.sty
INPUT /usr/share/texlive/texmf-dist/tex/latex/microtype/microtype-pdftex.def
INPUT /usr/share/texlive/texmf-dist/tex/latex/microtype/microtype-pdftex.def
INPUT /usr/share/texlive/texmf-dist/tex/latex/microtype/microtype.cfg
INPUT /usr/share/texlive/texmf-dist/tex/latex/microtype/microtype.cfg
INPUT /usr/share/texlive/texmf-dist/tex/latex/microtype/microtype.cfg
INPUT /usr/share/texlive/texmf-dist/tex/latex/tools/tabularx.sty
INPUT /usr/share/texlive/texmf-dist/tex/latex/tools/tabularx.sty
INPUT /usr/share/texlive/texmf-dist/tex/latex/tools/array.sty
INPUT /usr/share/texlive/texmf-dist/tex/latex/tools/array.sty
INPUT /usr/share/texlive/texmf-dist/tex/latex/booktabs/booktabs.sty
INPUT /usr/share/texlive/texmf-dist/tex/latex/booktabs/booktabs.sty
INPUT /usr/share/texlive/texmf-dist/tex/latex/hyperref/hyperref.sty
INPUT /usr/share/texlive/texmf-dist/tex/latex/hyperref/hyperref.sty
INPUT /usr/share/texlive/texmf-dist/tex/generic/ltxcmds/ltxcmds.sty
INPUT /usr/share/texlive/texmf-dist/tex/generic/ltxcmds/ltxcmds.sty
INPUT /usr/share/texlive/texmf-dist/tex/latex/pdftexcmds/pdftexcmds.sty
INPUT /usr/share/texlive/texmf-dist/tex/latex/pdftexcmds/pdftexcmds.sty
INPUT /usr/share/texlive/texmf-dist/tex/generic/infwarerr/infwarerr.sty
INPUT /usr/share/texlive/texmf-dist/tex/generic/infwarerr/infwarerr.sty
INPUT /usr/share/texlive/texmf-dist/tex/generic/kvsetkeys/kvsetkeys.sty
INPUT /usr/share/texlive/texmf-dist/tex/generic/kvsetkeys/kvsetkeys.sty
INPUT /usr/share/texlive/texmf-dist/tex/generic/kvdefinekeys/kvdefinekeys.sty
INPUT /usr/share/texlive/texmf-dist/tex/generic/kvdefinekeys/kvdefinekeys.sty
INPUT /usr/share/texlive/texmf-dist/tex/generic/pdfescape/pdfescape.sty
INPUT /usr/share/texlive/texmf-dist/tex/generic/pdfescape/pdfescape.sty
INPUT /usr/share/texlive/texmf-dist/tex/latex/hycolor/hycolor.sty
INPUT /usr/share/texlive/texmf-dist/tex/latex/hycolor/hycolor.sty
INPUT /usr/share/texlive/texmf-dist/tex/latex/letltxmacro/letltxmacro.sty
INPUT /usr/share/texlive/texmf-dist/tex/latex/letltxmacro/letltxmacro.sty
INPUT /usr/share/texlive/texmf-dist/tex/latex/auxhook/auxhook.sty
INPUT /usr/share/texlive/texmf-dist/tex/latex/auxhook/auxhook.sty
INPUT /usr/share/texlive/texmf-dist/tex/latex/kvoptions/kvoptions.sty
INPUT /usr/share/texlive/texmf-dist/tex/latex/kvoptions/kvoptions.sty
INPUT /usr/share/texlive/texmf-dist/tex/latex/hyperref/pd1enc.def
INPUT /usr/share/texlive/texmf-dist/tex/latex/hyperref/pd1enc.def
INPUT /usr/share/texlive/texmf-dist/tex/generic/intcalc/intcalc.sty
INPUT /usr/share/texlive/texmf-dist/tex/generic/intcalc/intcalc.sty
INPUT /usr/share/texlive/texmf-dist/tex/generic/etexcmds/etexcmds.sty
INPUT /usr/share/texlive/texmf-dist/tex/generic/etexcmds/etexcmds.sty
INPUT /usr/share/texlive/texmf-dist/tex/latex/hyperref/puenc.def
INPUT /usr/share/texlive/texmf-dist/tex/latex/hyperref/puenc.def
INPUT /usr/share/texlive/texmf-dist/tex/latex/url/url.sty
INPUT /usr/share/texlive/texmf-dist/tex/latex/url/url.sty
INPUT /usr/share/texlive/texmf-dist/tex/generic/bitset/bitset.sty
INPUT /usr/share/texlive/texmf-dist/tex/generic/bitset/bitset.sty
INPUT /usr/share/texlive/texmf-dist/tex/generic/bigintcalc/bigintcalc.sty
INPUT /usr/share/texlive/texmf-dist/tex/generic/bigintcalc/bigintcalc.sty
INPUT /usr/share/texlive/texmf-dist/tex/generic/atbegshi/atbegshi.sty
INPUT /usr/share/texlive/texmf-dist/tex/generic/atbegshi/atbegshi.sty
INPUT /usr/share/texlive/texmf-dist/tex/latex/hyperref/hpdftex.def
INPUT /usr/share/texlive/texmf-dist/tex/latex/hyperref/hpdftex.def
INPUT /usr/share/texlive/texmf-dist/tex/latex/atveryend/atveryend.sty
INPUT /usr/share/texlive/texmf-dist/tex/latex/atveryend/atveryend.sty
INPUT /usr/share/texlive/texmf-dist/tex/latex/rerunfilecheck/rerunfilecheck.sty
INPUT /usr/share/texlive/texmf-dist/tex/latex/rerunfilecheck/rerunfilecheck.sty
INPUT /usr/share/texlive/texmf-dist/tex/generic/uniquecounter/uniquecounter.sty
INPUT /usr/share/texlive/texmf-dist/tex/generic/uniquecounter/uniquecounter.sty
INPUT /usr/share/texlive/texmf-dist/tex/latex/parskip/parskip.sty
INPUT /usr/share/texlive/texmf-dist/tex/latex/parskip/parskip.sty
INPUT /usr/share/texlive/texmf-dist/tex/latex/parskip/parskip.sty
INPUT /usr/share/texlive/texmf-dist/tex/latex/etoolbox/etoolbox.sty
INPUT /usr/share/texlive/texmf-dist/tex/latex/etoolbox/etoolbox.sty
INPUT /usr/share/texlive/texmf-dist/tex/latex/graphics/color.sty
INPUT /usr/share/texlive/texmf-dist/tex/latex/graphics/color.sty
INPUT /usr/share/texlive/texmf-dist/tex/latex/graphics-cfg/color.cfg
INPUT /usr/share/texlive/texmf-dist/tex/latex/graphics-cfg/color.cfg
INPUT /usr/share/texlive/texmf-dist/tex/latex/graphics/dvipsnam.def
INPUT /usr/share/texlive/texmf-dist/tex/latex/graphics/dvipsnam.def
INPUT /usr/share/texlive/texmf-dist/tex/latex/psnfss/mathpazo.sty
INPUT /usr/share/texlive/texmf-dist/tex/latex/psnfss/mathpazo.sty
INPUT /usr/share/texlive/texmf-dist/tex/latex/geometry/geometry.sty
INPUT /usr/share/texlive/texmf-dist/tex/latex/geometry/geometry.sty
INPUT /usr/share/texlive/texmf-dist/tex/generic/iftex/ifvtex.sty
INPUT /usr/share/texlive/texmf-dist/tex/generic/iftex/ifvtex.sty
INPUT /usr/share/texlive/texmf-dist/tex/latex/l3backend/l3backend-pdfmode.def
INPUT /usr/share/texlive/texmf-dist/tex/latex/l3backend/l3backend-pdfmode.def
INPUT lecture.aux
INPUT lecture.aux
OUTPUT lecture.aux
INPUT /usr/share/texlive/texmf-dist/tex/latex/psnfss/t1ppl.fd
INPUT /usr/share/texlive/texmf-dist/tex/latex/psnfss/t1ppl.fd
INPUT /usr/share/texlive/texmf-dist/fonts/tfm/adobe/palatino/pplr8t.tfm
INPUT /usr/share/texlive/texmf-dist/tex/context/base/mkii/supp-pdf.mkii
INPUT /usr/share/texlive/texmf-dist/tex/context/base/mkii/supp-pdf.mkii
INPUT /usr/share/texlive/texmf-dist/tex/latex/epstopdf-pkg/epstopdf-base.sty
INPUT /usr/share/texlive/texmf-dist/tex/latex/epstopdf-pkg/epstopdf-base.sty
INPUT /usr/share/texlive/texmf-dist/tex/latex/latexconfig/epstopdf-sys.cfg
INPUT /usr/share/texlive/texmf-dist/tex/latex/latexconfig/epstopdf-sys.cfg
INPUT /usr/share/texlive/texmf-dist/tex/latex/microtype/mt-ppl.cfg
INPUT /usr/share/texlive/texmf-dist/tex/latex/microtype/mt-ppl.cfg
INPUT /usr/share/texlive/texmf-dist/tex/latex/hyperref/nameref.sty
INPUT /usr/share/texlive/texmf-dist/tex/latex/hyperref/nameref.sty
INPUT /usr/share/texlive/texmf-dist/tex/latex/refcount/refcount.sty
INPUT /usr/share/texlive/texmf-dist/tex/latex/refcount/refcount.sty
INPUT /usr/share/texlive/texmf-dist/tex/generic/gettitlestring/gettitlestring.sty
INPUT /usr/share/texlive/texmf-dist/tex/generic/gettitlestring/gettitlestring.sty
INPUT lecture.out
INPUT lecture.out
INPUT lecture.out
INPUT lecture.out
OUTPUT lecture.pdf
INPUT ./lecture.out
INPUT ./lecture.out
OUTPUT lecture.out
INPUT /usr/share/texlive/texmf-dist/fonts/tfm/adobe/palatino/pplr8t.tfm
INPUT /usr/share/texlive/texmf-dist/fonts/tfm/adobe/palatino/pplr8t.tfm
INPUT /usr/share/texlive/texmf-dist/tex/latex/psnfss/ot1ppl.fd
INPUT /usr/share/texlive/texmf-dist/tex/latex/psnfss/ot1ppl.fd
INPUT /usr/share/texlive/texmf-dist/fonts/tfm/adobe/palatino/pplr7t.tfm
INPUT /usr/share/texlive/texmf-dist/fonts/tfm/adobe/palatino/pplr7t.tfm
INPUT /usr/share/texlive/texmf-dist/fonts/tfm/adobe/palatino/pplr7t.tfm
INPUT /usr/share/texlive/texmf-dist/tex/latex/psnfss/omlzplm.fd
INPUT /usr/share/texlive/texmf-dist/tex/latex/psnfss/omlzplm.fd
INPUT /usr/share/texlive/texmf-dist/fonts/tfm/public/mathpazo/zplmr7m.tfm
INPUT /usr/share/texlive/texmf-dist/fonts/tfm/public/mathpazo/zplmr7m.tfm
INPUT /usr/share/texlive/texmf-dist/fonts/tfm/public/mathpazo/zplmr7m.tfm
INPUT /usr/share/texlive/texmf-dist/tex/latex/psnfss/omszplm.fd
INPUT /usr/share/texlive/texmf-dist/tex/latex/psnfss/omszplm.fd
INPUT /usr/share/texlive/texmf-dist/fonts/tfm/public/mathpazo/zplmr7y.tfm
INPUT /usr/share/texlive/texmf-dist/fonts/tfm/public/mathpazo/zplmr7y.tfm
INPUT /usr/share/texlive/texmf-dist/fonts/tfm/public/mathpazo/zplmr7y.tfm
INPUT /usr/share/texlive/texmf-dist/tex/latex/psnfss/omxzplm.fd
INPUT /usr/share/texlive/texmf-dist/tex/latex/psnfss/omxzplm.fd
INPUT /usr/share/texlive/texmf-dist/fonts/tfm/public/mathpazo/zplmr7v.tfm
INPUT /usr/share/texlive/texmf-dist/fonts/tfm/public/mathpazo/zplmr7v.tfm
INPUT /usr/share/texlive/texmf-dist/fonts/tfm/public/mathpazo/zplmr7v.tfm
INPUT /usr/share/texlive/texmf-dist/fonts/tfm/public/amsfonts/symbols/msam10.tfm
INPUT /usr/share/texlive/texmf-dist/tex/latex/microtype/mt-msa.cfg
INPUT /usr/share/texlive/texmf-dist/tex/latex/microtype/mt-msa.cfg
INPUT /usr/share/texlive/texmf-dist/fonts/tfm/public/amsfonts/symbols/msam10.tfm
INPUT /usr/share/texlive/texmf-dist/fonts/tfm/public/amsfonts/symbols/msam10.tfm
INPUT /usr/share/texlive/texmf-dist/fonts/tfm/public/amsfonts/symbols/msbm10.tfm
INPUT /usr/share/texlive/texmf-dist/tex/latex/microtype/mt-msb.cfg
INPUT /usr/share/texlive/texmf-dist/tex/latex/microtype/mt-msb.cfg
INPUT /usr/share/texlive/texmf-dist/fonts/tfm/public/amsfonts/symbols/msbm10.tfm
INPUT /usr/share/texlive/texmf-dist/fonts/tfm/public/amsfonts/symbols/msbm10.tfm
INPUT /usr/share/texlive/texmf-dist/tex/latex/psnfss/ot1zplm.fd
INPUT /usr/share/texlive/texmf-dist/tex/latex/psnfss/ot1zplm.fd
INPUT /usr/share/texlive/texmf-dist/fonts/tfm/public/mathpazo/zplmr7t.tfm
INPUT /usr/share/texlive/texmf-dist/fonts/tfm/public/mathpazo/zplmr7t.tfm
INPUT /usr/share/texlive/texmf-dist/fonts/tfm/public/mathpazo/zplmr7t.tfm
INPUT /usr/share/texlive/texmf-dist/fonts/tfm/adobe/palatino/pplri8t.tfm
INPUT /usr/share/texlive/texmf-dist/fonts/tfm/adobe/palatino/pplr7t.tfm
INPUT /usr/share/texlive/texmf-dist/fonts/tfm/adobe/palatino/pplr7t.tfm
INPUT /usr/share/texlive/texmf-dist/fonts/tfm/adobe/palatino/pplr7t.tfm
INPUT /usr/share/texlive/texmf-dist/fonts/tfm/public/mathpazo/zplmr7m.tfm
INPUT /usr/share/texlive/texmf-dist/fonts/tfm/public/mathpazo/zplmr7m.tfm
INPUT /usr/share/texlive/texmf-dist/fonts/tfm/public/mathpazo/zplmr7m.tfm
INPUT /usr/share/texlive/texmf-dist/fonts/tfm/public/mathpazo/zplmr7y.tfm
INPUT /usr/share/texlive/texmf-dist/fonts/tfm/public/mathpazo/zplmr7y.tfm
INPUT /usr/share/texlive/texmf-dist/fonts/tfm/public/mathpazo/zplmr7y.tfm
INPUT /usr/share/texlive/texmf-dist/fonts/tfm/public/mathpazo/zplmr7v.tfm
INPUT /usr/share/texlive/texmf-dist/fonts/tfm/public/mathpazo/zplmr7v.tfm
INPUT /usr/share/texlive/texmf-dist/fonts/tfm/public/mathpazo/zplmr7v.tfm
INPUT /usr/share/texlive/texmf-dist/fonts/tfm/public/amsfonts/symbols/msam10.tfm
INPUT /usr/share/texlive/texmf-dist/fonts/tfm/public/amsfonts/symbols/msam10.tfm
INPUT /usr/share/texlive/texmf-dist/fonts/tfm/public/amsfonts/symbols/msam10.tfm
INPUT /usr/share/texlive/texmf-dist/fonts/tfm/public/amsfonts/symbols/msbm10.tfm
INPUT /usr/share/texlive/texmf-dist/fonts/tfm/public/amsfonts/symbols/msbm10.tfm
INPUT /usr/share/texlive/texmf-dist/fonts/tfm/public/amsfonts/symbols/msbm10.tfm
INPUT /usr/share/texlive/texmf-dist/fonts/tfm/public/mathpazo/zplmr7t.tfm
INPUT /usr/share/texlive/texmf-dist/fonts/tfm/public/mathpazo/zplmr7t.tfm
INPUT /usr/share/texlive/texmf-dist/fonts/tfm/public/mathpazo/zplmr7t.tfm
INPUT /usr/share/texlive/texmf-dist/fonts/tfm/adobe/palatino/pplr8t.tfm
INPUT /usr/share/texlive/texmf-dist/fonts/tfm/adobe/palatino/pplb8t.tfm
INPUT /usr/share/texlive/texmf-dist/fonts/tfm/adobe/palatino/pplb8t.tfm
INPUT /usr/share/texlive/texmf-dist/tex/latex/psnfss/ts1ppl.fd
INPUT /usr/share/texlive/texmf-dist/tex/latex/psnfss/ts1ppl.fd
INPUT /usr/share/texlive/texmf-dist/fonts/tfm/adobe/palatino/pplr8c.tfm
INPUT /usr/share/texlive/texmf-dist/fonts/tfm/adobe/palatino/pplr8t.tfm
INPUT /usr/share/texlive/texmf-dist/fonts/tfm/adobe/palatino/pplr8t.tfm
INPUT /usr/share/texlive/texmf-dist/fonts/vf/adobe/palatino/pplr8t.vf
INPUT /usr/share/texlive/texmf-dist/fonts/tfm/adobe/palatino/pplr8r.tfm
INPUT /var/lib/texmf/fonts/map/pdftex/updmap/pdftex.map
INPUT /usr/share/texlive/texmf-dist/fonts/vf/adobe/palatino/pplr8t.vf
INPUT /usr/share/texlive/texmf-dist/fonts/tfm/adobe/palatino/pplr8r.tfm
INPUT /usr/share/texlive/texmf-dist/fonts/vf/adobe/palatino/pplri8t.vf
INPUT /usr/share/texlive/texmf-dist/fonts/tfm/adobe/palatino/pplri8r.tfm
INPUT /usr/share/texlive/texmf-dist/fonts/vf/adobe/palatino/pplr8t.vf
INPUT /usr/share/texlive/texmf-dist/fonts/tfm/adobe/palatino/pplr8r.tfm
INPUT /usr/share/texlive/texmf-dist/fonts/vf/adobe/palatino/pplb8t.vf
INPUT /usr/share/texlive/texmf-dist/fonts/tfm/adobe/palatino/pplb8r.tfm
INPUT /usr/share/texlive/texmf-dist/fonts/vf/adobe/palatino/pplb8t.vf
INPUT /usr/share/texlive/texmf-dist/fonts/tfm/adobe/palatino/pplb8r.tfm
INPUT /usr/share/texlive/texmf-dist/fonts/vf/adobe/palatino/pplr8c.vf
INPUT /usr/share/texlive/texmf-dist/fonts/tfm/public/mathpazo/fplmr.tfm
INPUT /usr/share/texlive/texmf-dist/fonts/vf/public/mathpazo/zplmr7m.vf
INPUT /usr/share/texlive/texmf-dist/fonts/tfm/public/mathpazo/fplmri.tfm
INPUT /usr/share/texlive/texmf-dist/fonts/tfm/public/cm/cmmi10.tfm
INPUT /usr/share/texlive/texmf-dist/fonts/vf/adobe/palatino/pplr8t.vf
INPUT /usr/share/texlive/texmf-dist/fonts/tfm/adobe/palatino/pplr8r.tfm
INPUT /usr/share/texlive/texmf-dist/fonts/vf/public/mathpazo/zplmr7t.vf
INPUT /usr/share/texlive/texmf-dist/fonts/tfm/public/cm/cmr10.tfm
INPUT /usr/share/texlive/texmf-dist/fonts/vf/public/mathpazo/zplmr7m.vf
INPUT /usr/share/texlive/texmf-dist/fonts/tfm/public/mathpazo/fplmri.tfm
INPUT /usr/share/texlive/texmf-dist/fonts/tfm/public/cm/cmmi10.tfm
INPUT /usr/share/texlive/texmf-dist/fonts/tfm/adobe/palatino/pplri8r.tfm
INPUT /usr/share/texlive/texmf-dist/fonts/vf/public/mathpazo/zplmr7v.vf
INPUT /usr/share/texlive/texmf-dist/fonts/tfm/public/cm/cmex10.tfm
INPUT /usr/share/texlive/texmf-dist/fonts/tfm/public/cm/cmex10.tfm
INPUT /usr/share/texlive/texmf-dist/fonts/tfm/public/mathpazo/fplmr.tfm
INPUT /usr/share/texlive/texmf-dist/fonts/vf/public/mathpazo/zplmr7m.vf
INPUT /usr/share/texlive/texmf-dist/fonts/tfm/public/mathpazo/fplmri.tfm
INPUT /usr/share/texlive/texmf-dist/fonts/tfm/public/cm/cmmi10.tfm
INPUT /usr/share/texlive/texmf-dist/fonts/tfm/adobe/palatino/pplr8r.tfm
INPUT /usr/share/texlive/texmf-dist/fonts/tfm/adobe/palatino/pplri8r.tfm
INPUT /usr/share/texlive/texmf-dist/fonts/tfm/adobe/palatino/pplb8t.tfm
INPUT images/Poisuille.jpg
INPUT ./images/Poisuille.jpg
INPUT ./images/Poisuille.jpg
INPUT /usr/share/texlive/texmf-dist/fonts/vf/adobe/palatino/pplr7t.vf
INPUT /usr/share/texlive/texmf-dist/fonts/vf/adobe/palatino/pplr7t.vf
INPUT /usr/share/texlive/texmf-dist/fonts/vf/adobe/palatino/pplb8t.vf
INPUT /usr/share/texlive/texmf-dist/fonts/tfm/adobe/palatino/pplb8r.tfm
INPUT images/Pois_stress.jpg
INPUT ./images/Pois_stress.jpg
INPUT ./images/Pois_stress.jpg
INPUT /usr/share/texlive/texmf-dist/fonts/vf/public/mathpazo/zplmr7y.vf
INPUT /usr/share/texlive/texmf-dist/fonts/tfm/public/cm/cmsy10.tfm
INPUT /usr/share/texlive/texmf-dist/fonts/vf/public/mathpazo/zplmr7t.vf
INPUT /usr/share/texlive/texmf-dist/fonts/tfm/public/mathpazo/fplmr.tfm
INPUT /usr/share/texlive/texmf-dist/fonts/tfm/public/cm/cmr10.tfm
INPUT /usr/share/texlive/texmf-dist/fonts/vf/public/mathpazo/zplmr7y.vf
INPUT /usr/share/texlive/texmf-dist/fonts/tfm/public/cm/cmsy10.tfm
INPUT images/Pois_turbstress.jpg
INPUT ./images/Pois_turbstress.jpg
INPUT ./images/Pois_turbstress.jpg
INPUT images/Blcompare.jpg
INPUT ./images/Blcompare.jpg
INPUT ./images/Blcompare.jpg
INPUT /usr/share/texmf/tex/latex/lm/t1lmtt.fd
INPUT /usr/share/texmf/tex/latex/lm/t1lmtt.fd
INPUT /usr/share/texmf/fonts/tfm/public/lm/ec-lmtt10.tfm
INPUT lecture.aux
INPUT ./lecture.out
INPUT ./lecture.out
INPUT /usr/share/texmf/fonts/enc/dvips/lm/lm-ec.enc
INPUT /usr/share/texlive/texmf-dist/fonts/enc/dvips/base/8r.enc
INPUT /usr/share/texlive/texmf-dist/fonts/type1/public/amsfonts/cm/cmex10.pfb
INPUT /usr/share/texlive/texmf-dist/fonts/type1/public/amsfonts/cm/cmmi10.pfb
INPUT /usr/share/texlive/texmf-dist/fonts/type1/public/amsfonts/cm/cmr10.pfb
INPUT /usr/share/texlive/texmf-dist/fonts/type1/public/amsfonts/cm/cmsy10.pfb
INPUT /usr/share/texlive/texmf-dist/fonts/type1/public/mathpazo/fplmr.pfb
INPUT /usr/share/texlive/texmf-dist/fonts/type1/public/mathpazo/fplmri.pfb
INPUT /usr/share/texmf/fonts/type1/public/lm/lmtt10.pfb
INPUT /usr/share/texlive/texmf-dist/fonts/type1/public/amsfonts/symbols/msam10.pfb
INPUT /usr/share/texlive/texmf-dist/fonts/type1/urw/palatino/uplb8a.pfb
INPUT /usr/share/texlive/texmf-dist/fonts/type1/urw/palatino/uplr8a.pfb
INPUT /usr/share/texlive/texmf-dist/fonts/type1/urw/palatino/uplri8a.pfb
