\BOOKMARK [1][-]{section.1}{\376\377\000F\000l\000o\000w\000\040\000t\000h\000r\000o\000u\000g\000h\000\040\000p\000i\000p\000e\000s}{}% 1
\BOOKMARK [2][-]{subsection.1.1}{\376\377\000L\000a\000m\000i\000n\000a\000r\000\040\000a\000n\000d\000\040\000t\000u\000r\000b\000u\000l\000e\000n\000t\000\040\000f\000l\000o\000w\000s}{section.1}% 2
\BOOKMARK [2][-]{subsection.1.2}{\376\377\000R\000e\000y\000n\000o\000l\000d\000s\000\040\000N\000u\000m\000b\000e\000r}{section.1}% 3
\BOOKMARK [2][-]{subsection.1.3}{\376\377\000E\000n\000t\000r\000a\000n\000c\000e}{section.1}% 4
\BOOKMARK [2][-]{subsection.1.4}{\376\377\000E\000n\000t\000r\000y\000\040\000l\000e\000n\000g\000t\000h\000s}{section.1}% 5
\BOOKMARK [2][-]{subsection.1.5}{\376\377\000L\000a\000m\000i\000n\000a\000r\000\040\000f\000l\000o\000w\000\040\000i\000n\000\040\000p\000i\000p\000e\000s}{section.1}% 6
\BOOKMARK [2][-]{subsection.1.6}{\376\377\000P\000r\000e\000s\000s\000u\000r\000e\000\040\000d\000r\000o\000p}{section.1}% 7
\BOOKMARK [2][-]{subsection.1.7}{\376\377\000I\000n\000c\000l\000i\000n\000e\000d\000\040\000a\000n\000d\000\040\000n\000o\000n\000-\000c\000i\000r\000c\000u\000l\000a\000r\000\040\000p\000i\000p\000e\000s}{section.1}% 8
\BOOKMARK [2][-]{subsection.1.8}{\376\377\000N\000o\000n\000-\000c\000i\000r\000c\000u\000l\000a\000r\000\040\000P\000i\000p\000e\000s}{section.1}% 9
\BOOKMARK [2][-]{subsection.1.9}{\376\377\000T\000u\000r\000b\000u\000l\000e\000n\000t\000\040\000f\000l\000o\000w}{section.1}% 10
\BOOKMARK [2][-]{subsection.1.10}{\376\377\000T\000u\000r\000b\000u\000l\000e\000n\000t\000\040\000v\000e\000l\000o\000c\000i\000t\000y\000\040\000p\000r\000o\000f\000i\000l\000e}{section.1}% 11
